module gitlab.com/spruett/stark

go 1.18

require (
	github.com/stripe/skycfg v0.1.1
	go.starlark.net v0.0.0-20230224151120-c52844e64a10
)

require (
	github.com/alecthomas/kong v0.7.1
	github.com/bazelbuild/buildtools v0.0.0-20230127124510-cf446296fb76
	github.com/bufbuild/protocompile v0.2.0
	github.com/fatih/color v1.14.1
	github.com/gonvenience/wrap v1.1.2
	github.com/gonvenience/ytbx v1.4.4
	github.com/gosuri/uilive v0.0.4
	github.com/homeport/dyff v1.5.6
	github.com/manifoldco/promptui v0.9.0
	github.com/opencontainers/image-spec v1.1.0-rc2.0.20221005185240-3a7f492d3f1b
	github.com/rodaine/table v1.1.0
	github.com/rs/zerolog v1.29.0
	github.com/stretchr/testify v1.8.2
	google.golang.org/protobuf v1.28.2-0.20220831092852-f930b1dc76e8
	gopkg.in/yaml.v2 v2.4.0
	gopkg.in/yaml.v3 v3.0.1
	k8s.io/api v0.26.2
	k8s.io/apimachinery v0.26.2
	k8s.io/client-go v0.26.2
	oras.land/oras-go v1.2.3
	oras.land/oras-go/v2 v2.0.2
)

require (
	github.com/AdaLogics/go-fuzz-headers v0.0.0-20230106234847-43070de90fa1 // indirect
	github.com/Azure/go-ansiterm v0.0.0-20210617225240-d185dfc1b5a1 // indirect
	github.com/BurntSushi/toml v1.0.0 // indirect
	github.com/beorn7/perks v1.0.1 // indirect
	github.com/cespare/xxhash/v2 v2.2.0 // indirect
	github.com/chzyer/readline v0.0.0-20180603132655-2972be24d48e // indirect
	github.com/containerd/containerd v1.7.0 // indirect
	github.com/cyphar/filepath-securejoin v0.2.3 // indirect
	github.com/davecgh/go-spew v1.1.1 // indirect
	github.com/docker/cli v23.0.1+incompatible // indirect
	github.com/docker/distribution v2.8.1+incompatible // indirect
	github.com/docker/docker v23.0.1+incompatible // indirect
	github.com/docker/docker-credential-helpers v0.7.0 // indirect
	github.com/docker/go-connections v0.4.0 // indirect
	github.com/docker/go-metrics v0.0.1 // indirect
	github.com/docker/go-units v0.5.0 // indirect
	github.com/emicklei/go-restful/v3 v3.10.1 // indirect
	github.com/go-logr/logr v1.2.3 // indirect
	github.com/go-logr/stdr v1.2.2 // indirect
	github.com/go-openapi/jsonpointer v0.19.5 // indirect
	github.com/go-openapi/jsonreference v0.20.0 // indirect
	github.com/go-openapi/swag v0.19.14 // indirect
	github.com/gogo/protobuf v1.3.2 // indirect
	github.com/golang/protobuf v1.5.2 // indirect
	github.com/gonvenience/bunt v1.3.4 // indirect
	github.com/gonvenience/neat v1.3.11 // indirect
	github.com/gonvenience/term v1.0.2 // indirect
	github.com/gonvenience/text v1.0.7 // indirect
	github.com/google/gnostic v0.5.7-v3refs // indirect
	github.com/google/go-cmp v0.5.9 // indirect
	github.com/google/gofuzz v1.2.0 // indirect
	github.com/gorilla/mux v1.8.0 // indirect
	github.com/imdario/mergo v0.3.13 // indirect
	github.com/josharian/intern v1.0.0 // indirect
	github.com/json-iterator/go v1.1.12 // indirect
	github.com/klauspost/compress v1.16.0 // indirect
	github.com/lucasb-eyer/go-colorful v1.2.0 // indirect
	github.com/mailru/easyjson v0.7.6 // indirect
	github.com/mattn/go-ciede2000 v0.0.0-20170301095244-782e8c62fec3 // indirect
	github.com/mattn/go-colorable v0.1.13 // indirect
	github.com/mattn/go-isatty v0.0.17 // indirect
	github.com/matttproud/golang_protobuf_extensions v1.0.4 // indirect
	github.com/mitchellh/go-ps v1.0.0 // indirect
	github.com/mitchellh/hashstructure v1.1.0 // indirect
	github.com/moby/locker v1.0.1 // indirect
	github.com/moby/term v0.0.0-20221205130635-1aeaba878587 // indirect
	github.com/modern-go/concurrent v0.0.0-20180306012644-bacd9c7ef1dd // indirect
	github.com/modern-go/reflect2 v1.0.2 // indirect
	github.com/morikuni/aec v1.0.0 // indirect
	github.com/munnerz/goautoneg v0.0.0-20191010083416-a7dc8b61c822 // indirect
	github.com/opencontainers/go-digest v1.0.0 // indirect
	github.com/pkg/errors v0.9.1 // indirect
	github.com/pmezard/go-difflib v1.0.0 // indirect
	github.com/prometheus/client_golang v1.14.0 // indirect
	github.com/prometheus/client_model v0.3.0 // indirect
	github.com/prometheus/common v0.37.0 // indirect
	github.com/prometheus/procfs v0.8.0 // indirect
	github.com/sergi/go-diff v1.2.0 // indirect
	github.com/sirupsen/logrus v1.9.0 // indirect
	github.com/spf13/pflag v1.0.5 // indirect
	github.com/texttheater/golang-levenshtein v1.0.1 // indirect
	github.com/virtuald/go-ordered-json v0.0.0-20170621173500-b18e6e673d74 // indirect
	go.opentelemetry.io/otel v1.14.0 // indirect
	go.opentelemetry.io/otel/trace v1.14.0 // indirect
	golang.org/x/net v0.8.0 // indirect
	golang.org/x/oauth2 v0.4.0 // indirect
	golang.org/x/sync v0.1.0 // indirect
	golang.org/x/sys v0.6.0 // indirect
	golang.org/x/term v0.6.0 // indirect
	golang.org/x/text v0.8.0 // indirect
	golang.org/x/time v0.0.0-20220210224613-90d013bbcef8 // indirect
	google.golang.org/appengine v1.6.7 // indirect
	google.golang.org/genproto v0.0.0-20230306155012-7f2fa6fef1f4 // indirect
	google.golang.org/grpc v1.53.0 // indirect
	gopkg.in/inf.v0 v0.9.1 // indirect
	k8s.io/klog/v2 v2.90.1 // indirect
	k8s.io/kube-openapi v0.0.0-20221012153701-172d655c2280 // indirect
	k8s.io/utils v0.0.0-20230220204549-a5ecb0141aa5 // indirect
	sigs.k8s.io/json v0.0.0-20220713155537-f223a00ba0e2 // indirect
	sigs.k8s.io/structured-merge-diff/v4 v4.2.3 // indirect
	sigs.k8s.io/yaml v1.3.0 // indirect
)
